<svg xmlns="http://www.w3.org/2000/svg" width="179.534" height="179.534" viewBox="0 0 179.534 179.534">
  <g id="Group_289" data-name="Group 289" transform="translate(-380 -948)">
    <path id="Path_88" data-name="Path 88" d="M192.542,168.6H171.6v-60.11a13.011,13.011,0,0,0,9.523-17.419L171.6,66.311V18.992A2.992,2.992,0,0,0,168.605,16H42.93a2.992,2.992,0,0,0-2.992,2.991h0V66.311L30.415,91.075a13.012,13.012,0,0,0,9.523,17.419V168.6H18.992A2.992,2.992,0,0,0,16,171.594h0v20.946a2.992,2.992,0,0,0,2.991,2.992H192.542a2.992,2.992,0,0,0,2.992-2.991h0V171.6a2.992,2.992,0,0,0-2.991-2.992Zm-32.915,0V104.783a12.985,12.985,0,0,0,5.984,3.527V168.6ZM135.689,171.6v17.953H123.72V168.6H129.7a2.992,2.992,0,0,0,2.992-2.992v-8.977a2.992,2.992,0,0,0-2.992-2.992H111.751a2.992,2.992,0,0,0-2.992,2.992v8.977a2.992,2.992,0,0,0,2.992,2.992h5.984v20.946H105.767V171.6a2.992,2.992,0,0,0-2.991-2.992H96.79v-8.977a2.992,2.992,0,0,0-2.991-2.992H87.814V108.486a13,13,0,0,0,7.395-4.458c.183.228.378.449.583.666a12.888,12.888,0,0,0,9.448,4.066h1.055a12.888,12.888,0,0,0,9.448-4.066c.206-.217.4-.438.583-.666a13.229,13.229,0,0,0,1.41,1.456v9.26A14.976,14.976,0,0,0,102.775,129.7a2.992,2.992,0,0,0,2.991,2.992h29.924a2.992,2.992,0,0,0,2.992-2.991h0a14.976,14.976,0,0,0-14.961-14.961v-6.258a12.845,12.845,0,0,0,2.644.273h.935a12.994,12.994,0,0,0,9.923-4.593c.079-.09.153-.183.224-.277a12.964,12.964,0,0,0,10.166,4.87h.58a13.046,13.046,0,0,0,5.45-1.182v49.058h-5.984a2.992,2.992,0,0,0-2.992,2.991h0V168.6h-5.984a2.992,2.992,0,0,0-2.992,2.991Zm-20.946-8.977v-2.992h11.969v2.992ZM56.56,93.9,63.165,69.86H75.31L70.855,96.891a7,7,0,0,1-6.934,5.883h-.58A7.03,7.03,0,0,1,56.56,93.9Zm1.332,13.678a13.046,13.046,0,0,0,5.45,1.182h.58a12.964,12.964,0,0,0,10.166-4.87c.071.094.146.187.224.277a12.987,12.987,0,0,0,7.518,4.369V123.72H57.891Zm26.343-4.8A7.026,7.026,0,0,1,77.3,94.6L81.376,69.86H93.63L92.186,96.132a7.028,7.028,0,0,1-7.017,6.643Zm27.162-2.2a6.967,6.967,0,0,1-5.1,2.2H105.24a7.027,7.027,0,0,1-7.027-7.028q0-.183.01-.367l1.4-25.52h12.291l1.4,25.5v.019A6.946,6.946,0,0,1,111.4,100.579Zm7.952-4.447L117.9,69.86h12.253L134.234,94.6a7.026,7.026,0,0,1-6.934,8.173h-.935a7.028,7.028,0,0,1-7.017-6.643Zm4.372,24.6a8.993,8.993,0,0,1,8.464,5.984H109.272a8.993,8.993,0,0,1,8.464-5.984Zm30.061-20.721a6.974,6.974,0,0,1-5.588,2.768h-.58a7,7,0,0,1-6.935-5.883L136.224,69.86h12.145l6.6,24.024s0,.011,0,.015A6.983,6.983,0,0,1,153.781,100.007Zm-3.131,62.612h2.992V168.6H150.65Zm24.884-69.4A7.029,7.029,0,1,1,162.2,97.609L154.574,69.86H166.55ZM45.922,21.984H165.612V63.876H45.922ZM36.766,99.726a6.933,6.933,0,0,1-.767-6.5L44.983,69.86H56.96L49.337,97.609a7.05,7.05,0,0,1-6.777,5.165A6.934,6.934,0,0,1,36.766,99.726Zm9.156,8.584a12.985,12.985,0,0,0,5.984-3.527V168.6H45.922ZM69.86,189.549H21.984V174.588H69.86ZM72.852,168.6H57.891V129.7H81.829v59.845H75.845V171.6a2.992,2.992,0,0,0-2.991-2.992Zm14.961-5.984h2.992V171.6a2.992,2.992,0,0,0,2.991,2.992h5.986v14.961H87.814Zm101.736,26.93H141.674V174.588h47.876Z" transform="translate(364 932)" fill="#fa9300"/>
    <g id="Group_288" data-name="Group 288">
      <path id="Path_89" data-name="Path 89" d="M2984.92,209.872l22.846-6.985,3.418-2.946,1.9,1.351,1.664.71,2.147.431,15.526,11,10.68,19.689,3.605,8.044v21.52h-19.511v20.9h-46.4V244.854Z" transform="translate(-2529 838)" fill="#fff"/>
      <path id="Path_90" data-name="Path 90" d="M3009.382,199.458h1.371l.719.57-2.09,3.25Z" transform="translate(-2529 838)" fill="#fff"/>
    </g>
  </g>
</svg>
