<svg xmlns="http://www.w3.org/2000/svg" width="141.853" height="112.641" viewBox="0 0 141.853 112.641">
  <g id="Group_254" data-name="Group 254" transform="translate(0 -105.437)">
    <g id="Group_245" data-name="Group 245" transform="translate(68.084 212.537)">
      <g id="Group_244" data-name="Group 244">
        <path id="Path_48" data-name="Path 48" d="M250.469,492.812a2.769,2.769,0,1,0,.812,1.959A2.79,2.79,0,0,0,250.469,492.812Z" transform="translate(-245.74 -492)" fill="#fa9300"/>
      </g>
    </g>
    <g id="Group_247" data-name="Group 247" transform="translate(0 105.437)">
      <g id="Group_246" data-name="Group 246">
        <path id="Path_49" data-name="Path 49" d="M127.047,166.842l-9.242-2.208v-3.666a18.285,18.285,0,0,0,8.547-15.465V135.179a18.275,18.275,0,0,0-31.967-12.114,24.425,24.425,0,0,0-23.429-17.627h0a24.425,24.425,0,0,0-23.443,17.676A18.275,18.275,0,0,0,15.5,135.179V145.5a18.284,18.284,0,0,0,8.547,15.465v3.666l-9.242,2.208A19.224,19.224,0,0,0,0,185.6v18.624A2.771,2.771,0,0,0,2.771,207H24.925v8.312a2.771,2.771,0,0,0,2.771,2.771H58.09a2.771,2.771,0,0,0,0-5.541H45.721V200.343a2.771,2.771,0,1,0-5.541,0v12.194H30.466v-12.5A20.171,20.171,0,0,1,45.985,180.36l13.626-3.265,8.768,19.947a2.77,2.77,0,0,0,2.536,1.656h0a2.77,2.77,0,0,0,2.536-1.655l8.759-19.918L95.8,180.369a20.168,20.168,0,0,1,15.533,19.68v3.092a2.775,2.775,0,0,0,0,2.167v7.228h-9.657V200.343a2.771,2.771,0,0,0-5.541,0v12.194H82.563a2.771,2.771,0,0,0,0,5.541H114.1a2.771,2.771,0,0,0,2.771-2.771V207h22.211a2.771,2.771,0,0,0,2.771-2.771V185.6A19.225,19.225,0,0,0,127.047,166.842Zm-18.982-44.408a12.76,12.76,0,0,1,12.745,12.745v.964h-7.925a34.232,34.232,0,0,1-17.052-4.551A12.769,12.769,0,0,1,108.065,122.434ZM95.32,145.051c.01-.283.017-7.45.017-7.45a39.775,39.775,0,0,0,17.549,4.082h7.925v3.82a12.745,12.745,0,0,1-25.491,0v-.452ZM52.114,129.818a18.841,18.841,0,0,1,37.681,0v.361l-10.283-6.041a2.77,2.77,0,0,0-3.527.609,20.923,20.923,0,0,1-16.075,7.5h-7.8Zm-31.072,6.046v-.686a12.746,12.746,0,0,1,24.977-3.586,34.234,34.234,0,0,1-17.052,4.551H21.043Zm0,9.639v-3.82h7.925a39.774,39.774,0,0,0,17.566-4.09v7.91a12.745,12.745,0,0,1-25.49,0Zm3.882,54.533v1.418h-8.3V189.145a2.771,2.771,0,0,0-5.541,0v12.309H5.541V185.6a13.7,13.7,0,0,1,10.552-13.369l8.782-2.1,5.732,13.73A25.72,25.72,0,0,0,24.925,200.037ZM33.788,177.1l-4.208-10.079c0-.066.009-.132.009-.2V163.3a18.165,18.165,0,0,0,8.379,0v3.344c0,.052,0,.1,0,.156,0,.087.008.174.017.261Zm10.906-2.129a26.041,26.041,0,0,0-4.684,1.61l2.7-6.462,8.784,2.1a13.732,13.732,0,0,1,1.988.641ZM58.446,169.2a19.238,19.238,0,0,0-5.662-2.36l-9.274-2.222V160.98a18.417,18.417,0,0,0,5.726-5.709,24.557,24.557,0,0,0,9.211,9.849Zm19.388,4.113-6.918,15.733-6.929-15.764v-5.714a24.4,24.4,0,0,0,13.847.026v5.719Zm-6.879-10.27A18.862,18.862,0,0,1,52.114,144.2v-6.408h7.8a26.442,26.442,0,0,0,18.725-7.741L89.779,136.6v8.253A18.86,18.86,0,0,1,70.955,163.04Zm12.42,2.132h0a24.555,24.555,0,0,0,9.273-9.852,18.428,18.428,0,0,0,5.695,5.661v3.634l-9.274,2.222a19.242,19.242,0,0,0-5.694,2.38v-4.045Zm13.709,9.809-8.762-2.093a13.755,13.755,0,0,1,2.038-.662l8.762-2.1,2.71,6.49A26.047,26.047,0,0,0,97.085,174.98Zm6.782-7.876a2.772,2.772,0,0,0,.019-.3c0-.026,0-.052,0-.078V163.3a18.16,18.16,0,0,0,8.379,0v3.524c0,.05,0,.1.006.15L108.04,177.1Zm32.445,34.351h-5.541V189.145a2.771,2.771,0,1,0-5.541,0v12.309h-8.358v-1.4a25.719,25.719,0,0,0-5.665-16.154l5.75-13.768,8.8,2.1A13.7,13.7,0,0,1,136.312,185.6Z" transform="translate(0 -105.437)" fill="#fa9300"/>
      </g>
    </g>
    <g id="Group_249" data-name="Group 249" transform="translate(58.864 140.294)">
      <g id="Group_248" data-name="Group 248" transform="translate(0 0)">
        <path id="Path_50" data-name="Path 50" d="M217.189,232.062a2.769,2.769,0,1,0,.812,1.959A2.791,2.791,0,0,0,217.189,232.062Z" transform="translate(-212.46 -231.25)" fill="#fa9300"/>
      </g>
    </g>
    <g id="Group_251" data-name="Group 251" transform="translate(77.39 140.294)">
      <g id="Group_250" data-name="Group 250" transform="translate(0 0)">
        <path id="Path_51" data-name="Path 51" d="M284.059,232.062a2.768,2.768,0,1,0,.812,1.959A2.79,2.79,0,0,0,284.059,232.062Z" transform="translate(-279.33 -231.25)" fill="#fa9300"/>
      </g>
    </g>
    <g id="Group_253" data-name="Group 253" transform="translate(64.639 149.621)">
      <g id="Group_252" data-name="Group 252" transform="translate(0 0)">
        <path id="Path_52" data-name="Path 52" d="M244.927,265.725a2.771,2.771,0,0,0-3.918,0,2.1,2.1,0,0,1-2.971,0,2.771,2.771,0,0,0-3.918,3.918,7.651,7.651,0,0,0,10.808,0A2.771,2.771,0,0,0,244.927,265.725Z" transform="translate(-233.307 -264.913)" fill="#fa9300"/>
      </g>
    </g>
  </g>
</svg>
