<svg xmlns="http://www.w3.org/2000/svg" width="139.769" height="119.511" viewBox="0 0 139.769 119.511">
  <path id="Path_85" data-name="Path 85" d="M137.694,107.765,121.751,73.617l6.882,1.974a2.847,2.847,0,0,0,1.571-5.473L82.351,56.387c.01-.2.016-.409.016-.615a12.479,12.479,0,0,0-23.373-6.088L11.137,35.953a2.847,2.847,0,1,0-1.571,5.473l9.445,2.71L1.907,80.771A2.848,2.848,0,0,0,0,83.457,22.827,22.827,0,0,0,39,99.571a22.562,22.562,0,0,0,6.811-16.114,2.847,2.847,0,0,0-2.075-2.739l-15.9-34.047,29.577,8.486c-.01.2-.016.409-.016.616a12.5,12.5,0,0,0,9.635,12.149v56.4H59.179a11.44,11.44,0,0,0-11.5,11.32v1.653a11.476,11.476,0,0,0-9.111,11.16v3.986a3.006,3.006,0,0,0,2.961,2.916H98.243a3.006,3.006,0,0,0,2.961-2.916V148.45a11.476,11.476,0,0,0-9.111-11.16v-1.653a11.441,11.441,0,0,0-11.5-11.32H72.732v-56.4a12.526,12.526,0,0,0,8.044-6.063L113,71.106l-17.14,36.713a2.847,2.847,0,0,0-1.909,2.685,22.828,22.828,0,0,0,39,16.115,22.567,22.567,0,0,0,6.812-16.115A2.848,2.848,0,0,0,137.694,107.765ZM22.835,49.269,37.4,80.473H8.268Zm0,51.191a17.024,17.024,0,0,1-16.9-14.292H39.869A17.273,17.273,0,0,1,22.835,100.459ZM95.509,148.45v1.208H44.261V148.45a5.741,5.741,0,0,1,5.808-5.625H89.7A5.741,5.741,0,0,1,95.509,148.45ZM86.4,135.638v1.493H53.372v-1.493a5.741,5.741,0,0,1,5.808-5.625H80.591A5.742,5.742,0,0,1,86.4,135.638ZM69.885,62.559a6.792,6.792,0,1,1,6.6-5.2,2.875,2.875,0,0,0-.16.556A6.8,6.8,0,0,1,69.885,62.559Zm61.474,44.962H102.224l14.567-31.2Zm-14.568,19.987a17.024,17.024,0,0,1-16.9-14.292h33.938A17.272,17.272,0,0,1,116.791,127.507Z" transform="translate(0 -35.842)" fill="#fa9300"/>
</svg>
