<svg id="surface1" xmlns="http://www.w3.org/2000/svg" width="122.552" height="122.551" viewBox="0 0 122.552 122.551">
  <path id="Path_46" data-name="Path 46" d="M118.961,8.845H103.235q.085-2.613.089-5.255A3.591,3.591,0,0,0,99.733,0H22.819a3.591,3.591,0,0,0-3.59,3.59q0,2.641.089,5.255H3.59A3.59,3.59,0,0,0,0,12.436C0,28.523,4.2,43.7,11.839,55.174c7.546,11.343,17.6,17.848,28.458,18.481a36.861,36.861,0,0,0,7.774,6.529V96.142H42.048a13.22,13.22,0,0,0-13.2,13.2v6.023h-.255a3.59,3.59,0,1,0,0,7.181H93.964a3.59,3.59,0,1,0,0-7.181h-.255v-6.023a13.22,13.22,0,0,0-13.2-13.2H74.481V80.185a36.837,36.837,0,0,0,7.775-6.529c10.858-.633,20.91-7.139,28.458-18.481,7.634-11.473,11.838-26.651,11.838-42.739A3.59,3.59,0,0,0,118.961,8.845ZM17.817,51.2c-6.3-9.463-10-21.841-10.561-35.171H19.718C21.013,32.413,24.86,47.56,30.872,59.583q1.436,2.872,3,5.428C27.9,62.755,22.371,58.041,17.817,51.2Zm68.711,58.15v6.024h-50.5v-6.024a6.031,6.031,0,0,1,6.024-6.024H80.5A6.031,6.031,0,0,1,86.528,109.347ZM67.3,96.142H55.252V83.3a23.36,23.36,0,0,0,12.048,0Zm2.223-21.38a3.522,3.522,0,0,0-.466.236A16.764,16.764,0,0,1,53.5,75a3.632,3.632,0,0,0-.47-.239,28.9,28.9,0,0,1-8.115-6.69,3.645,3.645,0,0,0-.457-.535,56.6,56.6,0,0,1-7.16-11.165c-6.6-13.2-10.409-30.546-10.843-49.19H96.1c-.435,18.644-4.246,36-10.843,49.19A56.642,56.642,0,0,1,78.1,67.536a3.55,3.55,0,0,0-.459.536A28.9,28.9,0,0,1,69.524,74.762ZM104.734,51.2c-4.553,6.844-10.08,11.558-16.052,13.814q1.558-2.555,3-5.428c6.012-12.023,9.858-27.17,11.154-43.557H115.3C114.732,29.356,111.032,41.734,104.734,51.2Z" fill="#fa9300"/>
</svg>
